EDA
…
Read in file

diabetes <- read_csv(file = "diabetes_binary_health_indicators_BRFSS2015.csv")

Rows: 253680 Columns: 22
── Column specification ────────────────────────────────────────────────────────
Delimiter: ","
dbl (22): Diabetes_binary, HighBP, HighChol, CholCheck, BMI, Smoker, Stroke,...

ℹ Use `spec()` to retrieve the full column specification for this data.
ℹ Specify the column types or set `show_col_types = FALSE` to quiet this message.

diabetes

# A tibble: 253,680 × 22
   Diabetes_binary HighBP HighChol CholCheck   BMI Smoker Stroke
             <dbl>  <dbl>    <dbl>     <dbl> <dbl>  <dbl>  <dbl>
 1               0      1        1         1    40      1      0
 2               0      0        0         0    25      1      0
 3               0      1        1         1    28      0      0
 4               0      1        0         1    27      0      0
 5               0      1        1         1    24      0      0
 6               0      1        1         1    25      1      0
 7               0      1        0         1    30      1      0
 8               0      1        1         1    25      1      0
 9               1      1        1         1    30      1      0
10               0      0        0         1    24      0      0
# ℹ 253,670 more rows
# ℹ 15 more variables: HeartDiseaseorAttack <dbl>, PhysActivity <dbl>,
#   Fruits <dbl>, Veggies <dbl>, HvyAlcoholConsump <dbl>, AnyHealthcare <dbl>,
#   NoDocbcCost <dbl>, GenHlth <dbl>, MentHlth <dbl>, PhysHlth <dbl>,
#   DiffWalk <dbl>, Sex <dbl>, Age <dbl>, Education <dbl>, Income <dbl>
…
This looks reasonable, but I’ll still do a density plot to make sure. Mainly to make sure that the values in the lower 25th and the upper 75th percentiles aren’t all grouped at the extremes, but instead spread out a bit. If everything above 35 or so are all 98’s for instance, I’d be concerned that 98 is actually a coded value for something rather than a true value (e.g. what if the true values are capped at 35, and anything exceeding it was coded as 98). If they’re spread out, then I’d be more comfortable assuming they’re valid outliers.

diabetes |>
  group_by(Age, Diabetes_binary) |>
  summarize(across(where(is.numeric),
            mean,
            .names = "mean_{col}"))

`summarise()` has grouped output by 'Age'. You can override using the `.groups`
argument.

# A tibble: 26 × 5
# Groups:   Age [13]
   Age      Diabetes_binary mean_BMI mean_MentHlth mean_PhysHlth
   <fct>    <fct>              <dbl>         <dbl>         <dbl>
 1 18 to 24 0                   26.0          4.36          1.92
 2 18 to 24 1                   29.7          5.68          6.46
 3 25 to 29 0                   27.5          3.74          2.05
 4 25 to 29 1                   34.2          6.93          6.14
 5 30 to 34 0                   28.3          3.76          2.36
 6 30 to 34 1                   34.2          6.16          6.06
 7 35 to 39 0                   28.3          3.61          2.54
 8 35 to 39 1                   34.4          6.87          6.24
 9 40 to 44 0                   28.5          3.53          2.78
10 40 to 44 1                   35.1          6.87          7.78
# ℹ 16 more rows
…
