Modeling
…
Recipe

Numeric predictors will be standardized, and dummy variables will be created for the binary and categorial variables.

tree_rec <- recipe(Diabetes_binary ~ GenHlth + HighBP + HighChol + DiffWalk + 
                     BMI + PhysHlth,
                   data = diabetes_train) |>
  step_normalize(all_numeric()) |>
  step_dummy(GenHlth, HighBP, HighChol, DiffWalk)

tree_rec |>
  prep(diabetes_train) |>
  bake(diabetes_train)

# A tibble: 177,576 × 10
       BMI PhysHlth Diabetes_binary GenHlth_Very.Good GenHlth_Good GenHlth_Fair
     <dbl>    <dbl> <fct>                       <dbl>        <dbl>        <dbl>
 1 -0.209    -0.486 0                               1            0            0
 2 -0.209    -0.486 0                               1            0            0
 3 -0.510    -0.486 0                               0            0            0
 4  1.15     -0.371 0                               1            0            0
 5  1.75     -0.486 0                               0            0            1
 6 -0.661    -0.486 0                               0            0            0
 7 -0.661    -0.486 0                               0            0            0
 8  0.546     2.96  0                               0            0            1
 9 -0.0578   -0.486 0                               0            1            0
10  1.45     -0.256 0                               0            1            0
# ℹ 177,566 more rows
# ℹ 4 more variables: GenHlth_Poor <dbl>, HighBP_X1 <dbl>, HighChol_X1 <dbl>,
#   DiffWalk_X1 <dbl>
…
